<svg xmlns="http://www.w3.org/2000/svg" width="39" height="28">
  <g fill="#30225C" fill-rule="evenodd">
    <path d="M25.7713 18.1493l-3.2445-.2738c-.28-.0397-.56-.1957-.6804-.4694l-1.2422-2.9359c-.28-.627-1.2014-.627-1.4814 0l-1.2405 2.936c-.1205.2736-.3598.4693-.6805.4693l-3.2038.2738c-.7211.0397-1.0011.9006-.4411 1.37l2.4826 2.075c.2409.1958.3207.4695.2409.783L15.52 25.469c-.1595.6652.6007 1.2142 1.2014.861l2.7627-1.6439c.2409-.156.56-.156.8416 0l2.7626 1.6438c.6007.3517 1.361-.156 1.2014-.8609l-.7602-3.0918c-.0798-.2737.0406-.5872.2409-.783l2.4826-2.075c.5193-.4694.2393-1.3303-.4818-1.37z"/>
    <path d="M17.2146 11.9483l.6833-1.8104c.1602-.4023-.1602-.8046-.5624-.8046H4.4676c-2.0514 0-3.7793 1.5291-3.9803 3.58l-.4838 4.8686c-.0409.4825.2812.9257.7634 1.0058.523.121 1.2472.2012 1.9697.2813l.443 7.765C3.2204 27.4783 3.742 28 4.4268 28h3.74c.6441 0 1.2064-.5233 1.2473-1.166l.644-13.3172c0-.6444.5624-1.207 1.2064-1.207h5.427c.242.041.443-.121.5231-.3614zM10.92 3.8881c0 2.1489-1.9204 3.8897-4.2892 3.8897-2.3705 0-4.2908-1.7409-4.2908-3.8897C2.34 1.7408 4.2604 0 6.6308 0 8.9997 0 10.92 1.7408 10.92 3.8881M38.4726 12.9054c-.2007-2.048-1.9276-3.572-3.9743-3.572H21.6498c-.4015 0-.6823.4014-.5615.8028l.6822 1.8064c.08.2415.3216.4015.5615.4015h5.4205c.6822 0 1.2045.5221 1.2045 1.2043l.643 13.288c.0409.643.5616 1.1636 1.2454 1.1636h3.7344c.6431 0 1.2046-.5222 1.2454-1.1635l.4423-7.748c.723-.08 1.4053-.16 1.9668-.2807.4815-.08.803-.5222.7622-1.0036l-.5239-4.8988zM36.66 3.8881c0 2.1489-1.9204 3.8897-4.2908 3.8897-2.3689 0-4.2892-1.7409-4.2892-3.8897C28.08 1.7408 30.0004 0 32.3692 0 34.7397 0 36.66 1.7408 36.66 3.8881"/>
  </g>
</svg>
